  _
  _____                 ___  _              _                                                                     _
 / _____)               / __)(_)            | |                                                                   (_)
| /        ___   ____  | |__  _   ____       \ \    ____   ____  _   _   ____   ____     ___   ____   ____  _   _  _   ____   ____
| |       / _ \ |  _ \ |  __)| | / _  |       \ \  / _  ) / ___)| | | | / _  ) / ___)   /___) / _  ) / ___)| | | || | / ___) / _  )
| \_____ | |_| || | | || |   | |( ( | |   _____) )( (/ / | |     \ V / ( (/ / | |      |___ |( (/ / | |     \ V / | |( (___ ( (/ /
 \______) \___/ |_| |_||_|   |_| \_|| |  (______/  \____)|_|      \_/   \____)|_|      (___/  \____)|_|      \_/  |_| \____) \____)

                                (_____|
  ${AnsiStyle.BOLD}══════════════════════════════════════════════════════════════════════════════════════════════════════════════════════════════════════════════════════════

 ${AnsiColor.BLACK}Service Name :${AnsiColor.RED}${AnsiStyle.BOLD} ${spring.application.name}

 ${AnsiColor.BRIGHT_BLUE}Powered by :: Yasser Abu Elayyan 🤓
 :: Running Spring Boot ${spring-boot.version} ::
